LabComSys/week10/systemc-2.3.1a/adder.vcd
$date
     May 04, 2017       22:11:58
$end

$version
 SystemC 2.3.1-Accellera --- May  4 2017 21:58:21
$end

$timescale
     1 ps
$end

$scope module SystemC $end
$var wire    1  aaaaa  cout       $end
$var wire    1  aaaab  sum       $end
$var wire    1  aaaac  cin       $end
$var wire    1  aaaad  b       $end
$var wire    1  aaaae  a       $end
$upscope $end
$enddefinitions  $end

$comment
All initial values are dumped below at time 0 sec = 0 timescale units.
$end

$dumpvars
0aaaaa
0aaaab
0aaaac
0aaaad
0aaaae
$end

#1
1aaaab
1aaaac

#2
0aaaab
0aaaac

#3
1aaaab
1aaaad

#4
0aaaab
0aaaad

#5
1aaaaa
1aaaac
1aaaad

#6
0aaaaa
0aaaac
0aaaad

#7
1aaaab
1aaaae

#8
0aaaab
0aaaae

#9
1aaaaa
1aaaac
1aaaae

#10
0aaaaa
0aaaac
0aaaae

#11
1aaaaa
1aaaad
1aaaae

#12
0aaaaa
0aaaad
0aaaae

#13
1aaaaa
1aaaab
1aaaac
1aaaad
1aaaae

#14
0aaaaa
0aaaab
0aaaac
0aaaad
0aaaae

